…
# Calculating 75th percentile of departure delay for each carrier at each origin
percentile_75 <- flights_morning %>%
  group_by(origin, carrier) %>%
  summarize(p75_dep_delay = quantile(dep_delay, 0.75, na.rm = TRUE)) %>%
  arrange(origin, p75_dep_delay)
  
# Showing the result
percentile_75
```

::: {.cell-output .cell-output-stdout}

```
# A tibble: 33 × 3
# Groups:   origin [3]
   origin carrier p75_dep_delay
   <chr>  <chr>           <dbl>
 1 EWR    9E                 -2
 2 EWR    DL                 -2
 3 EWR    US                 -2
 4 EWR    AA                 -1
 5 EWR    B6                 -1
 6 EWR    AS                  0
 7 EWR    MQ                  0
 8 EWR    VX                  0
 9 EWR    WN                  2
10 EWR    EV                  3
# ℹ 23 more rows
```
…
