…
::: {.cell}

```{.r .cell-code}
german_conscr = read_dta("germanconscr.dta")
# bdec - birth year
# "height" - cm
# all M
german_conscr
```

::: {.cell-output .cell-output-stdout}

```
# A tibble: 1,382 × 5
   gebger      bdec height   age co   
   <chr>      <dbl>  <dbl> <dbl> <chr>
 1 brueckenau  1850   170.    21 de-se
 2 brueckenau  1850   156.    21 de-se
 3 brueckenau  1850   172.    21 de-se
 4 brueckenau  1850   168.    21 de-se
 5 brueckenau  1850   167.    21 de-se
 6 brueckenau  1850   160.    21 de-se
 7 brueckenau  1850   161.    21 de-se
 8 brueckenau  1850   162.    21 de-se
 9 brueckenau  1850   162.    21 de-se
10 brueckenau  1850   170.    21 de-se
# ℹ 1,372 more rows
```

:::

```{.r .cell-code}
german_prison = read_dta("germanprison.dta")
#"bdec" - birth year
#"height" - cm
# all M
german_prison
```

::: {.cell-output .cell-output-stdout}

```
# A tibble: 477 × 4
     age  bdec co    height
   <dbl> <dbl> <chr>  <dbl>
 1    22  1850 de       156
 2    26  1850 de       168
 3    26  1850 de       161
 4    25  1850 de       159
 5    26  1850 de       175
 6    24  1850 de       173
 7    24  1850 de       173
 8    24  1850 de       172
 9    24  1850 de       161
10    21  1850 de       175
# ℹ 467 more rows
```
…
:::

```{.r .cell-code}
BLS = read_csv("https://raw.githubusercontent.com/hadley/r4ds/main/data/heights.csv")
#"height" in
#sex (male, female)
#birthday all: 1950
BLS
```

::: {.cell-output .cell-output-stdout}

```
# A tibble: 1,192 × 6
    earn height sex       ed   age race    
   <dbl>  <dbl> <chr>  <dbl> <dbl> <chr>   
 1 50000   74.4 male      16    45 white   
 2 60000   65.5 female    16    58 white   
 3 30000   63.6 female    16    29 white   
 4 50000   63.1 female    16    91 other   
 5 51000   63.4 female    17    39 white   
 6  9000   64.4 female    15    26 white   
 7 29000   61.7 female    12    49 white   
 8 32000   72.7 male      17    46 white   
 9  2000   72.0 male      15    21 hispanic
10 27000   72.2 male      12    26 white   
# ℹ 1,182 more rows
```

:::

```{.r .cell-code}
UWNSD = read_sav("main05022005.sav")
#RT216I height of respondent, inches
#doby DATE OF BIRTH, YEAR
#RE35 male = 1, female = 2, other(drop/na)
UWNSD
```

::: {.cell-output .cell-output-stdout}

```
# A tibble: 7,277 × 2,317
   CASE  TYPE  CASEID CASENUM DOBM     DOBY  RT1A1    RT1A2    RT1A3    RT1B1   
   <chr> <chr> <chr>    <dbl> <dbl+lb> <dbl> <dbl+lb> <dbl+lb> <dbl+lb> <dbl+lb>
 1 00008 S     00008S       8 10 [OCT… 15     5       NA       NA        3      
 2 00058 R     00058R      58  2 [FEB… 40     3        0 [NON…  1        2      
 3 00058 S     00058S      58  2 [FEB… 40     0 [NON… NA       NA        0 [NON…
 4 00079 S     00079S      79 11 [NOV… 12     7       NA       NA        0 [NON…
 5 00082 S     00082S      82  7 [JUL… 61     4       NA        1        4      
 6 00120 R     00120R     120 10 [OCT… 54    14        0 [NON…  0 [NON…  7      
 7 00120 S     00120S     120 11 [NOV… 54     1       10        2        0 [NON…
 8 00133 R     00133R     133 10 [OCT… 51    18        0 [NON…  3       18      
 9 00146 R     00146R     146  4 [APR… 52     1        0 [NON… NA        2      
10 00146 S     00146S     146  4 [APR… 51     0 [NON… 20       NA        0 [NON…
# ℹ 7,267 more rows
# ℹ 2,307 more variables: RT1B2 <dbl+lbl>, RT1B3 <dbl+lbl>, RT1C1 <dbl+lbl>,
#   RT1C2 <dbl+lbl>, RT1C3 <dbl+lbl>, RT1D1 <dbl+lbl>, RT1D2 <dbl+lbl>,
#   RT1D3 <dbl+lbl>, RT1E1 <dbl+lbl>, RT1E2 <dbl+lbl>, RT1E3 <dbl+lbl>,
#   RT1F1 <dbl+lbl>, RT1F2 <dbl+lbl>, RT1F3 <dbl+lbl>, RT1G1 <dbl+lbl>,
#   RT1G2 <dbl+lbl>, RT1G3 <dbl+lbl>, RT1H1 <dbl+lbl>, RT1H2 <dbl+lbl>,
#   RT1H3 <dbl+lbl>, RT1I1 <dbl+lbl>, RT1I2 <dbl+lbl>, RT1I3 <dbl+lbl>, …
```
…
#print(UWNSD)

# include the full year
UWNSD <- UWNSD %>%
  mutate(
    birth_year = ifelse(birth_year <= 5, 2000 + birth_year, 1900 + birth_year)
  )

print(UWNSD)
```

::: {.cell-output .cell-output-stdout}

```
# A tibble: 7,255 × 4
   birth_year height.in height.cm study
        <dbl>     <dbl>     <dbl> <chr>
 1       1940        60      152. UWNSD
 2       1940        67      170. UWNSD
 3       1912        65      165. UWNSD
 4       1961        66      168. UWNSD
 5       1954        62      157. UWNSD
 6       1954        71      180. UWNSD
 7       1951        64      163. UWNSD
 8       1952        67      170. UWNSD
 9       1951        69      175. UWNSD
10       1949        64      163. UWNSD
# ℹ 7,245 more rows
```
…
:::
:::

::: {.cell}

```{.r .cell-code}
german_conscr
```

::: {.cell-output .cell-output-stdout}

```
# A tibble: 1,382 × 4
   birth_year height.in height.cm study            
        <dbl>     <dbl>     <dbl> <chr>            
 1       1850      66.8      170. German Conscripts
 2       1850      61.6      156. German Conscripts
 3       1850      67.9      172. German Conscripts
 4       1850      66.2      168. German Conscripts
 5       1850      65.6      167. German Conscripts
 6       1850      63.1      160. German Conscripts
 7       1850      63.2      161. German Conscripts
 8       1850      63.9      162. German Conscripts
 9       1850      63.7      162. German Conscripts
10       1850      67.0      170. German Conscripts
# ℹ 1,372 more rows
```


:::

```{.r .cell-code}
german_prison
```

::: {.cell-output .cell-output-stdout}

```
# A tibble: 477 × 4
   birth_year height.in height.cm study        
        <dbl>     <dbl>     <dbl> <chr>        
 1       1850      61.4       156 German Prison
 2       1850      66.1       168 German Prison
 3       1850      63.4       161 German Prison
 4       1850      62.6       159 German Prison
 5       1850      68.9       175 German Prison
 6       1850      68.1       173 German Prison
 7       1850      68.1       173 German Prison
 8       1850      67.7       172 German Prison
 9       1850      63.4       161 German Prison
10       1850      68.9       175 German Prison
# ℹ 467 more rows
```
…
:::

```{.r .cell-code}
BLS
```

::: {.cell-output .cell-output-stdout}

```
# A tibble: 505 × 4
   birth_year height.in height.cm study
        <dbl>     <dbl>     <dbl> <chr>
 1       1950      74.4      189. BLS  
 2       1950      72.7      185. BLS  
 3       1950      72.0      183. BLS  
 4       1950      72.2      183. BLS  
 5       1950      69.5      177. BLS  
 6       1950      68.0      173. BLS  
 7       1950      67.6      172. BLS  
 8       1950      67.8      172. BLS  
 9       1950      69.6      177. BLS  
10       1950      73.1      186. BLS  
# ℹ 495 more rows
```


:::

```{.r .cell-code}
UWNSD
```

::: {.cell-output .cell-output-stdout}

```
# A tibble: 7,255 × 4
   birth_year height.in height.cm study
        <dbl>     <dbl>     <dbl> <chr>
 1       1940        60      152. UWNSD
 2       1940        67      170. UWNSD
 3       1912        65      165. UWNSD
 4       1961        66      168. UWNSD
 5       1954        62      157. UWNSD
 6       1954        71      180. UWNSD
 7       1951        64      163. UWNSD
 8       1952        67      170. UWNSD
 9       1951        69      175. UWNSD
10       1949        64      163. UWNSD
# ℹ 7,245 more rows
```


:::

```{.r .cell-code}
combined_data
```

::: {.cell-output .cell-output-stdout}

```
# A tibble: 27,866 × 4
   birth_year height.in height.cm study            
        <dbl>     <dbl>     <dbl> <chr>            
 1       1850      66.8      170. German Conscripts
 2       1850      61.6      156. German Conscripts
 3       1850      67.9      172. German Conscripts
 4       1850      66.2      168. German Conscripts
 5       1850      65.6      167. German Conscripts
 6       1850      63.1      160. German Conscripts
 7       1850      63.2      161. German Conscripts
 8       1850      63.9      162. German Conscripts
 9       1850      63.7      162. German Conscripts
10       1850      67.0      170. German Conscripts
# ℹ 27,856 more rows
```
…
