…
```{.r .cell-code}
separated_data <- stock_data %>%
  mutate(
    month = tolower(sub(".*-(.*)\\d{4}", "\\1", contest_period)),  
    year = sub(".*?(\\d{4})$", "\\1", contest_period)   
  ) %>%
  select(contest_period, month, year, value, variable)

print(separated_data)
```

::: {.cell-output .cell-output-stdout}

```
# A tibble: 300 × 5
   contest_period             month     year  value variable
   <chr>                      <chr>     <chr> <dbl> <chr>   
 1 January-June1990           june      1990   12.7 PROS    
 2 February-July1990          july      1990   26.4 PROS    
 3 March-August1990           august    1990    2.5 PROS    
 4 April-September1990        september 1990  -20   PROS    
 5 May-October1990            october   1990  -37.8 PROS    
 6 June-November1990          november  1990  -33.3 PROS    
 7 July-December1990          december  1990  -10.2 PROS    
 8 August1990-January1991     january   1991  -20.3 PROS    
 9 September1990-February1991 february  1991   38.9 PROS    
10 October1990-March1991      march     1991   20.2 PROS    
# ℹ 290 more rows
```
…
